<svg version="1.1" id="dmax" viewBox="0 0 117 50" preserveAspectRatio="xMinYMin meet" xmlns="http://www.w3.org/2000/svg">
<style type="text/css">
<![CDATA[
    .st0{fill:#6E6E6E;}
]]>
</style>
<path id="max" class="st0" d="M116.589,9.243l-12.253,0.764l-6.013,7.462l-3.457-6.873l-12.158,0.757l7.79,15.224L79.53,39.662
    l-5.973-27.737l-10.732,0.668L45.257,42.717l2.15-29.165l-10.843,0.676L25.888,31.156l-4.112-16.007l-10.887,0.678L0.642,49.367
    l10.643-0.664l4.961-18.807l5.782,18.139l1.164-0.072l13.263-19.324l-2.272,18.641l10.788-0.674l0,0l8.824-0.549l3.055-5.598
    l11.369-0.709l0.76,5.359l6.313-0.393l0,0l0.485-0.031l4.771-0.297l0,0l6.61-0.412l7.487-8.859l3.936,8.146L110.88,42.5
    l-8.327-16.674L116.589,9.243z M60.075,34.434l5.062-9.539c0.211-0.347,0.495-1.058,0.76-1.686c0.039,0.561,0.014,1.165,0.082,1.582
    l1.319,9.191L60.075,34.434z"/>
<g id="drukwerk">
    <path class="st0" d="M0.642,0.167h3.848c2.312,0,4.049,1.449,4.049,4.413c0,2.587-1.322,4.512-4.049,4.512H0.642V0.167z
         M2.602,7.441h1.75c1.139,0,2.228-0.702,2.228-2.677c0-1.801-0.628-2.948-2.576-2.948H2.602V7.441z"/>
    <path class="st0" d="M9.897,0.167h4.811c1.601,0,2.613,1.113,2.613,2.462c0,1.052-0.426,1.839-1.412,2.236V4.89
        c0.961,0.25,1.236,1.188,1.3,2.085c0.036,0.567,0.024,1.614,0.375,2.116h-1.963c-0.237-0.562-0.214-1.423-0.312-2.136
        c-0.138-0.937-0.5-1.354-1.488-1.354h-1.96v3.49H9.897V0.167z M11.861,4.203h2.148c0.875,0,1.351-0.375,1.351-1.273
        c0-0.863-0.476-1.239-1.351-1.239h-2.148V4.203z"/>
    <path class="st0" d="M26.49,5.716c0,2.412-1.425,3.585-3.812,3.585c-2.398,0-3.797-1.163-3.797-3.585v-5.55h1.961v5.55
        c0,0.973,0.25,1.936,1.836,1.936c1.399,0,1.851-0.612,1.851-1.936v-5.55h1.961V5.716z"/>
    <path class="st0" d="M28.176,0.167h1.963v3.7l3.483-3.7h2.451l-3.487,3.525l3.825,5.399h-2.463L31.261,5.08l-1.122,1.133v2.877
        h-1.963V0.167z"/>
    <path class="st0" d="M45.692,9.091h-1.949l-1.514-6.077h-0.024l-1.487,6.077h-1.985l-2.361-8.924h1.961l1.411,6.077h0.025
        l1.549-6.077h1.838l1.525,6.146h0.024l1.461-6.146h1.926L45.692,9.091z"/>
    <path class="st0" d="M48.988,0.167h6.672v1.649h-4.71v1.91h4.324v1.53H50.95v2.185h4.811v1.65h-6.772V0.167z"/>
    <path class="st0" d="M57.083,0.167h4.811c1.6,0,2.613,1.113,2.613,2.462c0,1.052-0.426,1.839-1.412,2.236V4.89
        c0.961,0.25,1.236,1.188,1.299,2.085c0.037,0.567,0.023,1.614,0.375,2.116h-1.963c-0.236-0.562-0.213-1.423-0.312-2.136
        c-0.138-0.937-0.499-1.354-1.485-1.354h-1.962v3.49h-1.963V0.167z M59.046,4.203h2.148c0.876,0,1.349-0.375,1.349-1.273
        c0-0.863-0.473-1.239-1.349-1.239h-2.148V4.203z"/>
    <path class="st0" d="M66.103,0.167h1.963v3.7l3.486-3.7H74l-3.487,3.525l3.824,5.399h-2.461L69.188,5.08l-1.123,1.133v2.877h-1.963
        V0.167z"/>
</g>
</svg>
